%YAML 1.1
%TAG !u! tag:unity3d.com,2011:
--- !u!21 &2100000
Material:
  serializedVersion: 6
  m_ObjectHideFlags: 0
  m_CorrespondingSourceObject: {fileID: 0}
  m_PrefabInternal: {fileID: 0}
  m_Name: DistorionMat1
  m_Shader: {fileID: 4800000, guid: d84268709d11078d11005b9844295342, type: 3}
  m_ShaderKeywords: _NORMALMAP
  m_LightmapFlags: 4
  m_EnableInstancingVariants: 0
  m_DoubleSidedGI: 0
  m_CustomRenderQueue: -1
  stringTagMap: {}
  disabledShaderPasses: []
  m_SavedProperties:
    serializedVersion: 3
    m_TexEnvs:
    - _BumpMap:
        m_Texture: {fileID: 2800000, guid: a53cf5449d11a15d1100a04b44295342, type: 3}
        m_Scale: {x: 1, y: 1}
        m_Offset: {x: 0, y: 0}
    - _ColorControl:
        m_Texture: {fileID: 2800000, guid: 117ddc24ac05f4ac795a5da4b30aba56, type: 3}
        m_Scale: {x: 1, y: 1}
        m_Offset: {x: 0, y: 0}
    - _DetailAlbedoMap:
        m_Texture: {fileID: 0}
        m_Scale: {x: 1, y: 1}
        m_Offset: {x: 0, y: 0}
    - _DetailMask:
        m_Texture: {fileID: 0}
        m_Scale: {x: 1, y: 1}
        m_Offset: {x: 0, y: 0}
    - _DetailNormalMap:
        m_Texture: {fileID: 0}
        m_Scale: {x: 1, y: 1}
        m_Offset: {x: 0, y: 0}
    - _EmissionMap:
        m_Texture: {fileID: 0}
        m_Scale: {x: 1, y: 1}
        m_Offset: {x: 0, y: 0}
    - _Fresnel:
        m_Texture: {fileID: 2800000, guid: 184411e5cbfcef94d90c27171a6135d6, type: 3}
        m_Scale: {x: 1, y: 1}
        m_Offset: {x: 0, y: 0}
    - _MainTex:
        m_Texture: {fileID: 2800000, guid: 1a55072e908ebe74e962a97efbc17416, type: 3}
        m_Scale: {x: 1, y: 1}
        m_Offset: {x: 0, y: 0}
    - _MetallicGlossMap:
        m_Texture: {fileID: 0}
        m_Scale: {x: 1, y: 1}
        m_Offset: {x: 0, y: 0}
    - _OcclusionMap:
        m_Texture: {fileID: 0}
        m_Scale: {x: 1, y: 1}
        m_Offset: {x: 0, y: 0}
    - _ParallaxMap:
        m_Texture: {fileID: 0}
        m_Scale: {x: 1, y: 1}
        m_Offset: {x: 0, y: 0}
    - _ReflectionTex:
        m_Texture: {fileID: 2800000, guid: a2203213fc4dd244e90e1e9d1862c097, type: 3}
        m_Scale: {x: 1, y: 1}
        m_Offset: {x: 0, y: 0}
    - _ReflectiveColor:
        m_Texture: {fileID: 2800000, guid: 2dd3788f8589b40bf82a92d76ffc5091, type: 3}
        m_Scale: {x: 1, y: 1}
        m_Offset: {x: 0, y: 0}
    - _RefractionTex:
        m_Texture: {fileID: 0}
        m_Scale: {x: 1, y: 1}
        m_Offset: {x: 0, y: 0}
    - _ShoreTex:
        m_Texture: {fileID: 0}
        m_Scale: {x: 1, y: 1}
        m_Offset: {x: 0, y: 0}
    - _ToonShade:
        m_Texture: {fileID: 0}
        m_Scale: {x: 1, y: 1}
        m_Offset: {x: 0, y: 0}
    m_Floats:
    - _BumpAmt: 128
    - _BumpScale: 1
    - _Cutoff: 0.5
    - _DetailNormalMapScale: 1
    - _DstBlend: 0
    - _FresnelScale: 0.75
    - _GerstnerIntensity: 1
    - _GlossMapScale: 1
    - _Glossiness: 0.5
    - _GlossyReflections: 1
    - _InvFade: 1
    - _Metallic: 0
    - _Mode: 0
    - _OcclusionStrength: 1
    - _Parallax: 0.02
    - _ReflDistort: 1.5
    - _RefrDistort: 0.66
    - _Shininess: 200
    - _SmoothnessTextureChannel: 0
    - _SpecularHighlights: 1
    - _SrcBlend: 1
    - _UVSec: 0
    - _WaveScale: 0.15
    - _ZWrite: 1
    m_Colors:
    - WaveSpeed: {r: 19, g: 9, b: -16, a: -7}
    - _AnimationDirection: {r: 1, g: 1, b: 1, a: 1}
    - _AnimationTiling: {r: 2.2, g: 2.2, b: -1.1, a: -1.1}
    - _BaseColor: {r: 0.54, g: 0.95, b: 0.99, a: 0.5}
    - _BumpDirection: {r: 1, g: 1, b: -1, a: 1}
    - _BumpTiling: {r: 1, g: 1, b: -2, a: 3}
    - _Color: {r: 1, g: 1, b: 1, a: 1}
    - _DistortParams: {r: 1, g: 1, b: 2, a: 1.15}
    - _EmissionColor: {r: 0, g: 0, b: 0, a: 1}
    - _Foam: {r: 0.1, g: 0.375, b: 0, a: 0}
    - _GAmplitude: {r: 0.3, g: 0.35, b: 0.25, a: 0.25}
    - _GDirectionAB: {r: 0.3, g: 0.85, b: 0.85, a: 0.25}
    - _GDirectionCD: {r: 0.1, g: 0.9, b: 0.5, a: 0.5}
    - _GFrequency: {r: 1.3, g: 1.35, b: 1.25, a: 1.25}
    - _GSpeed: {r: 1.2, g: 1.375, b: 1.1, a: 1.5}
    - _GSteepness: {r: 1, g: 1, b: 1, a: 1}
    - _HorizonColor: {r: 0.172, g: 0.463, b: 0.435, a: 1}
    - _InvFadeParemeter: {r: 0.15, g: 0.15, b: 0.5, a: 1}
    - _ReflectionColor: {r: 0.54, g: 0.95, b: 0.99, a: 0.5}
    - _RefrColor: {r: 1, g: 1, b: 1, a: 1}
    - _SpecularColor: {r: 0.72, g: 0.72, b: 0.72, a: 1}
    - _TintColor: {r: 0.5, g: 0.5, b: 0.5, a: 0.5}
    - _WorldLightDir: {r: 0, g: 0.1, b: -0.5, a: 0}
    - _horizonColor: {r: 0.172, g: 0.463, b: 0.435, a: 0}
