%YAML 1.1
%TAG !u! tag:unity3d.com,2011:
--- !u!1045 &1
EditorBuildSettings:
  m_ObjectHideFlags: 0
  serializedVersion: 2
  m_Scenes:
  - enabled: 1
    path: Assets/BattleTest.unity
    guid: 85ae849f3ccd74ccfa773604ca09a880
  m_configObjects: {}
